com/fy/demo/testcode/CWE_326_padding_oracle.class
com/fy/demo/testcode/CWE_297_verifiedServerHostnames.class
com/fy/demo/mapper/UserMapper.class
com/fy/demo/testcode/CWE_501_trust_boundary$1.class
com/fy/demo/testcode/CWE_93_CRLF.class
com/fy/demo/testcode/CWE_93_CRLF$Test.class
com/fy/demo/helpers/Thing2.class
com/fy/demo/helpers/DatabaseHelper.class
com/fy/demo/testcode/CWE_79_XSS_Servlet.class
com/fy/demo/testcode/CWE_287_AuthenticationBypass.class
com/fy/demo/config/WebConfig.class
com/fy/demo/testcode/CWE_78_command_injection$1.class
com/fy/demo/helpers/ExpressionEvaluator.class
com/fy/demo/testcode/CWE_89_jdbc_spring_beans.class
com/fy/demo/testcode/CWE_93_CRLF$1.class
com/fy/demo/testcode/CWE_918_SSRF.class
com/fy/demo/testcode/CWE_330_pseudorandom.class
com/fy/demo/helpers/Thing1.class
com/fy/demo/testcode/CWE_327_weak_hash_SHA1.class
com/fy/demo/testcode/CWE_1104_EsapiCrypto.class
com/fy/demo/testcode/CWE_502_Deserialize.class
com/fy/demo/testcode/CWE_90_LDAP_injection.class
com/fy/demo/service/pojo/Person.class
com/fy/demo/helpers/PropertiesManager.class
com/fy/demo/testcode/CWE_78_command_injection$Test.class
com/fy/demo/testcode/CWE_643_XPath_injection$1.class
com/fy/demo/testcode/CWE_501_trust_boundary.class
com/fy/demo/testcode/CWE_614_secure_cookie.class
com/fy/demo/testcode/CWE_117_CRLF_and_Log4j.class
com/fy/demo/testcode/CWE_22_path_traversal.class
com/fy/demo/testcode/CWE_643_XPath_injection$Test.class
com/fy/demo/helpers/LDAPManager.class
com/fy/demo/dao/User.class
com/fy/demo/helpers/ThingFactory.class
com/fy/demo/helpers/ThingInterface.class
com/fy/demo/helpers/LDAPPerson.class
com/fy/demo/testcode/CWE_330_pseudorandom$Test.class
com/fy/demo/utils/HttpUtils.class
com/fy/demo/helpers/SeparateClassRequest.class
com/fy/demo/testcode/CWE_78_command_injection.class
com/fy/demo/helpers/Utils.class
com/fy/demo/helpers/SourceUtils.class
com/fy/demo/security/AntObjectInputStream.class
com/fy/demo/testcode/CWE_297_verifiedServerHostnames$Test.class
com/fy/demo/testcode/CWE_643_XPath_injection.class
com/fy/demo/testcode/CWE_89_jdbc_injection.class
com/fy/demo/testcode/CWE_611_xpathi.class
com/fy/demo/service/pojo/StringMessage.class
com/fy/demo/testcode/CWE_327_weak_hash_MD5.class
com/fy/demo/security/AntObjectInputStream$MyObject.class
com/fy/demo/testcode/CWE_501_trust_boundary$Test.class
